%YAML 1.1
%TAG !u! tag:unity3d.com,2011:
--- !u!114 &11400000
MonoBehaviour:
  m_ObjectHideFlags: 0
  m_CorrespondingSourceObject: {fileID: 0}
  m_PrefabInstance: {fileID: 0}
  m_PrefabAsset: {fileID: 0}
  m_GameObject: {fileID: 0}
  m_Enabled: 1
  m_EditorHideFlags: 0
  m_Script: {fileID: 11500000, guid: d07ff0a01178cbd48a3285dff4c06945, type: 3}
  m_Name: Map_A
  m_EditorClassIdentifier: 
  tile: {fileID: 11400000, guid: 81520a68c8d4cf648bd54239660a4cb8, type: 2}
  layers:
  - id: 0
    tiles:
    - x: 0
      y: 0
  - id: 0
    tiles:
    - x: 1
      y: 0
    - x: -1
      y: 0
    - x: 0
      y: 1
    - x: 1
      y: 1
    - x: -1
      y: -1
    - x: 0
      y: -1
  - id: 0
    tiles:
    - x: 2
      y: 0
    - x: 1
      y: -1
    - x: 0
      y: -2
    - x: -1
      y: -2
    - x: -2
      y: -2
    - x: -2
      y: -1
    - x: -2
      y: 0
    - x: -1
      y: 1
    - x: 0
      y: 2
    - x: 1
      y: 2
    - x: 2
      y: 2
    - x: 2
      y: 1
