%YAML 1.1
%TAG !u! tag:unity3d.com,2011:
--- !u!114 &11400000
MonoBehaviour:
  m_ObjectHideFlags: 0
  m_CorrespondingSourceObject: {fileID: 0}
  m_PrefabInstance: {fileID: 0}
  m_PrefabAsset: {fileID: 0}
  m_GameObject: {fileID: 0}
  m_Enabled: 1
  m_EditorHideFlags: 0
  m_Script: {fileID: 11500000, guid: 3729a7881a9d9164c817abd5624d50fb, type: 3}
  m_Name: Tile_B
  m_EditorClassIdentifier: 
  tile: {fileID: 4473563621993331180, guid: 3e96907b521e8a74b912ff473809b055, type: 3}
  orientation: 0
  radius: 1.12
